<svg xmlns="http://www.w3.org/2000/svg" xmlns:xlink="http://www.w3.org/1999/xlink"
     width="77.459681pt" height="30.391498pt" viewBox="-.299738 -.251628 77.459681 30.391498">
<defs>
<path id="g2-43" d="M4.770112-2.761644H8.069738C8.237111-2.761644 8.452304-2.761644 8.452304-2.976837C8.452304-3.203985 8.249066-3.203985 8.069738-3.203985H4.770112V-6.503611C4.770112-6.670984 4.770112-6.886177 4.554919-6.886177C4.327771-6.886177 4.327771-6.682939 4.327771-6.503611V-3.203985H1.028144C.860772-3.203985 .645579-3.203985 .645579-2.988792C.645579-2.761644 .848817-2.761644 1.028144-2.761644H4.327771V.537983C4.327771 .705355 4.327771 .920548 4.542964 .920548C4.770112 .920548 4.770112 .71731 4.770112 .537983V-2.761644Z"/>
<path id="g2-59" d="M2.199751-4.578829C2.199751-4.901619 1.924782-5.152677 1.625903-5.152677C1.279203-5.152677 1.0401-4.877709 1.0401-4.578829C1.0401-4.220174 1.338979-3.993026 1.613948-3.993026C1.936737-3.993026 2.199751-4.244085 2.199751-4.578829ZM1.996513-.119552C1.996513 .298879 1.996513 1.147696 1.267248 2.044334C1.195517 2.139975 1.195517 2.163885 1.195517 2.187796C1.195517 2.247572 1.255293 2.307347 1.315068 2.307347C1.398755 2.307347 2.235616 1.422665 2.235616 .02391C2.235616-.418431 2.199751-1.159651 1.613948-1.159651C1.267248-1.159651 1.0401-.896638 1.0401-.585803C1.0401-.263014 1.267248 0 1.625903 0C1.853051 0 1.936737-.071731 1.996513-.119552Z"/>
<path id="g2-61" d="M8.069738-3.873474C8.237111-3.873474 8.452304-3.873474 8.452304-4.088667C8.452304-4.315816 8.249066-4.315816 8.069738-4.315816H1.028144C.860772-4.315816 .645579-4.315816 .645579-4.100623C.645579-3.873474 .848817-3.873474 1.028144-3.873474H8.069738ZM8.069738-1.649813C8.237111-1.649813 8.452304-1.649813 8.452304-1.865006C8.452304-2.092154 8.249066-2.092154 8.069738-2.092154H1.028144C.860772-2.092154 .645579-2.092154 .645579-1.876961C.645579-1.649813 .848817-1.649813 1.028144-1.649813H8.069738Z"/>
<path id="g1-49" d="M2.502615-5.076961C2.502615-5.292154 2.486675-5.300125 2.271482-5.300125C1.944707-4.98132 1.522291-4.790037 .765131-4.790037V-4.527024C.980324-4.527024 1.41071-4.527024 1.872976-4.742217V-.653549C1.872976-.358655 1.849066-.263014 1.091905-.263014H.812951V0C1.139726-.02391 1.825156-.02391 2.183811-.02391S3.235866-.02391 3.56264 0V-.263014H3.283686C2.526526-.263014 2.502615-.358655 2.502615-.653549V-5.076961Z"/>
<path id="g1-50" d="M2.247572-1.625903C2.375093-1.745455 2.709838-2.008468 2.83736-2.12005C3.331507-2.574346 3.801743-3.012702 3.801743-3.737983C3.801743-4.686426 3.004732-5.300125 2.008468-5.300125C1.052055-5.300125 .422416-4.574844 .422416-3.865504C.422416-3.474969 .73325-3.419178 .844832-3.419178C1.012204-3.419178 1.259278-3.53873 1.259278-3.841594C1.259278-4.25604 .860772-4.25604 .765131-4.25604C.996264-4.837858 1.530262-5.037111 1.920797-5.037111C2.662017-5.037111 3.044583-4.407472 3.044583-3.737983C3.044583-2.909091 2.462765-2.303362 1.522291-1.338979L.518057-.302864C.422416-.215193 .422416-.199253 .422416 0H3.57061L3.801743-1.42665H3.55467C3.53076-1.267248 3.466999-.868742 3.371357-.71731C3.323537-.653549 2.717808-.653549 2.590286-.653549H1.171606L2.247572-1.625903Z"/>
<path id="g1-52" d="M3.140224-5.156663C3.140224-5.316065 3.140224-5.379826 2.972852-5.379826C2.86924-5.379826 2.86127-5.371856 2.781569-5.260274L.239103-1.570112V-1.307098H2.486675V-.645579C2.486675-.350685 2.462765-.263014 1.849066-.263014H1.665753V0C2.343213-.02391 2.359153-.02391 2.81345-.02391S3.283686-.02391 3.961146 0V-.263014H3.777833C3.164134-.263014 3.140224-.350685 3.140224-.645579V-1.307098H3.985056V-1.570112H3.140224V-5.156663ZM2.542466-4.511083V-1.570112H.518057L2.542466-4.511083Z"/>
<path id="g0-58" d="M2.199751-.573848C2.199751-.920548 1.912827-1.159651 1.625903-1.159651C1.279203-1.159651 1.0401-.872727 1.0401-.585803C1.0401-.239103 1.327024 0 1.613948 0C1.960648 0 2.199751-.286924 2.199751-.573848Z"/>
<path id="g0-80" d="M3.53873-3.801743H5.547198C7.197011-3.801743 8.846824-5.021171 8.846824-6.38406C8.846824-7.316563 8.057783-8.16538 6.551432-8.16538H2.857285C2.630137-8.16538 2.52254-8.16538 2.52254-7.938232C2.52254-7.81868 2.630137-7.81868 2.809465-7.81868C3.53873-7.81868 3.53873-7.723039 3.53873-7.591532C3.53873-7.567621 3.53873-7.49589 3.490909-7.316563L1.876961-.884682C1.769365-.466252 1.745455-.3467 .908593-.3467C.681445-.3467 .561893-.3467 .561893-.131507C.561893 0 .669489 0 .74122 0C.968369 0 1.207472-.02391 1.43462-.02391H2.833375C3.060523-.02391 3.311582 0 3.53873 0C3.634371 0 3.765878 0 3.765878-.227148C3.765878-.3467 3.658281-.3467 3.478954-.3467C2.761644-.3467 2.749689-.430386 2.749689-.549938C2.749689-.609714 2.761644-.6934 2.773599-.753176L3.53873-3.801743ZM4.399502-7.352428C4.507098-7.79477 4.554919-7.81868 5.021171-7.81868H6.204732C7.10137-7.81868 7.84259-7.531756 7.84259-6.635118C7.84259-6.324284 7.687173-5.308095 7.137235-4.758157C6.933998-4.542964 6.360149-4.088667 5.272229-4.088667H3.58655L4.399502-7.352428Z"/>
<path id="g0-84" d="M4.985305-7.292653C5.057036-7.579577 5.080946-7.687173 5.260274-7.734994C5.355915-7.758904 5.750436-7.758904 6.001494-7.758904C7.197011-7.758904 7.758904-7.711083 7.758904-6.77858C7.758904-6.599253 7.711083-6.144956 7.639352-5.702615L7.627397-5.559153C7.627397-5.511333 7.675218-5.439601 7.746949-5.439601C7.866501-5.439601 7.866501-5.499377 7.902366-5.69066L8.249066-7.806725C8.272976-7.914321 8.272976-7.938232 8.272976-7.974097C8.272976-8.105604 8.201245-8.105604 7.962142-8.105604H1.422665C1.147696-8.105604 1.135741-8.093649 1.06401-7.878456L.334745-5.726526C.32279-5.702615 .286924-5.571108 .286924-5.559153C.286924-5.499377 .334745-5.439601 .406476-5.439601C.502117-5.439601 .526027-5.487422 .573848-5.642839C1.075965-7.089415 1.327024-7.758904 2.917061-7.758904H3.718057C4.004981-7.758904 4.124533-7.758904 4.124533-7.627397C4.124533-7.591532 4.124533-7.567621 4.064757-7.352428L2.462765-.932503C2.343213-.466252 2.319303-.3467 1.052055-.3467C.753176-.3467 .669489-.3467 .669489-.119552C.669489 0 .800996 0 .860772 0C1.159651 0 1.470486-.02391 1.769365-.02391H3.634371C3.93325-.02391 4.25604 0 4.554919 0C4.686426 0 4.805978 0 4.805978-.227148C4.805978-.3467 4.722291-.3467 4.411457-.3467C3.335492-.3467 3.335492-.454296 3.335492-.633624C3.335492-.645579 3.335492-.729265 3.383313-.920548L4.985305-7.292653Z"/>
</defs>
<g fill="#222" stroke="#222" style="fill: var(--color, #222); stroke: var(--color, #222);" stroke-width="0.3" transform="matrix(1.13 0 0 1.13 -80.23 -67.352472)">
<use x="70.734745" y="67.546657" xlink:href="#g0-84"/>
<use x="77.59575" y="69.33992" xlink:href="#g1-49"/>
<use x="85.648894" y="67.546657" xlink:href="#g2-61"/>
<use x="98.074375" y="67.546657" xlink:href="#g0-80"/>
<use x="105.619643" y="69.33992" xlink:href="#g1-49"/>
<use x="113.008621" y="67.546657" xlink:href="#g2-43"/>
<use x="124.769936" y="67.546657" xlink:href="#g0-80"/>
<use x="132.315204" y="69.33992" xlink:href="#g1-50"/>
<use x="137.047519" y="67.546657" xlink:href="#g2-59"/>
<use x="70.734745" y="84.483145" xlink:href="#g0-84"/>
<use x="77.59575" y="86.276409" xlink:href="#g1-50"/>
<use x="85.648894" y="84.483145" xlink:href="#g2-61"/>
<use x="98.074375" y="84.483145" xlink:href="#g0-84"/>
<use x="104.93538" y="86.276409" xlink:href="#g1-49"/>
<use x="112.324359" y="84.483145" xlink:href="#g2-43"/>
<use x="124.085674" y="84.483145" xlink:href="#g0-80"/>
<use x="131.630941" y="86.276409" xlink:href="#g1-52"/>
<use x="136.363256" y="84.483145" xlink:href="#g0-58"/>
</g>
</svg>
